/Users/blancoja/IdeaProjects/firstExample/src/main/java/entities/Movie.java
/Users/blancoja/IdeaProjects/firstExample/src/main/java/org/refactoring/Main.java
/Users/blancoja/IdeaProjects/firstExample/src/main/java/entities/Customer.java
/Users/blancoja/IdeaProjects/firstExample/src/main/java/entities/Rental.java
